02.1_statistics.knit
…
desc_avatar_adj <- ratings_clean %>%
  group_by(avatar, adjectif) %>%
  summarise(
    Mean = mean(note),
    SD = round(sd(note, na.rm = TRUE), 2),
    N = n(),
    .groups = "drop"
  ) %>%
  arrange(avatar, adjectif)

desc_avatar_adj

## # A tibble: 48 × 5
##    avatar           adjectif    Mean    SD     N
##    <chr>            <fct>      <dbl> <dbl> <int>
##  1 F_ATH_W_D.mp4    athletic   81.6  19.6     19
##  2 F_ATH_W_D.mp4    average    48.4  24.1     19
##  3 F_ATH_W_D.mp4    overweight 18.8  19.8     19
##  4 F_ATH_W_D.mp4    obese      16    23.3     19
##  5 F_ATH_W_D.mp4    thin       29.8  20.4     19
##  6 F_ATH_W_D.mp4    skinny      7.79 14.7     19
##  7 F_SKINNY_W_D.mp4 athletic   31    27.8     19
##  8 F_SKINNY_W_D.mp4 average    33.9  26.2     19
##  9 F_SKINNY_W_D.mp4 overweight  5.26 16.0     19
## 10 F_SKINNY_W_D.mp4 obese       1.42  0.77    19
## # ℹ 38 more rows
…
